:020000040000FA
:020000000029D5
:0A020000B8310022803163000029AC
:047020000020080044
:04702C000020080038
:047032000020080032
:04703800002008002C
:047044000020080020
:04704A00002008001A
:047050000020080014
:04705600002008000E
:04705C000020080008
:047062000020080002
:0470680000200800FC
:04706E0000200800F6
:0470740000200134C3
:04707A0000200800EA
:0470800000200800E4
:0470860000200800DE
:04708C0000200134AB
:0470980000200800CC
:04709E0000200800C6
:0470A40000200800C0
:0470AA0000200800BA
:0470B00000200800B4
:0470B60000200800AE
:0470BC0000200800A8
:0470C20000200800A2
:0470C800002008009C
:0470CE000020080096
:0470D4000020080090
:0470DA00002008008A
:0470E0000020080084
:0470E600002008007E
:0470EC000020080078
:0470F2000020080072
:0470F800002008006C
:04710400002008005F
:04710A000020080059
:047110000020080053
:04711600002008004D
:04711C000020080047
:047122000020080041
:04712800002008003B
:04712E000020080035
:04713A000020080029
:047140000020080023
:04714600002008001D
:04714C000020080017
:047152000020080011
:04715800002008000B
:04715E000020080005
:0471640000200800FF
:0471700000200800F3
:0471760000200800ED
:04717C0000200800E7
:0471820000200800E1
:0471880000200800DB
:04718E0000200800D5
:0471940000200800CF
:04719A0000200800C9
:0471A00000200800C3
:0471A60000200800BD
:0471AC0000200800B7
:0471B20000200800B1
:0471B800002001347E
:0471BE0000200800A5
:0471C400002008009F
:0471D0000020080093
:0471D6000020013460
:0471DC000020080087
:0471E2000020080081
:0471E800002001344E
:0471EE000020080075
:0471F400002008006F
:047220000020080042
:04722600002008003C
:04722C000020080036
:047232000020080030
:04723800002008002A
:04723E000020080024
:0472440000200134F1
:04724A000020080018
:047250000020080012
:047262000020080000
:0472680000200800FA
:04726E0000200134C7
:0472740000200800EE
:04727A0000200134BB
:0472800000200800E2
:0472860000200800DC
:04728C0000200800D6
:0472920000200800D0
:0472980000200800CA
:04729E0000200800C4
:0472A4000020013491
:0472AA00002001348B
:0472B00000200800B2
:0472B60000200800AC
:0472C20000200800A0
:0472CE000020080094
:0472D400002008008E
:0472DA000020080088
:0472E0000020013455
:0472E600002008007C
:08740000AC31042C20220432FF
:08741000AC310024BA31080080
:1074400064007008013A2B0003191932033A03193A
:107450004A32013A03199332043A0319A932013A24
:107460000319AB320F3A0319A832093A0319AA32A9
:107470000A3A0319DE2B183A0319282C352C200060
:10748000931D2F3293112B00D208031DD203DB0A68
:107490005B08193A031D2532DB01D3308600053025
:1074A0008700DC01413F0104031915321600DD009D
:1074B0000108DE000130DD020030DE3B5D085E04C5
:1074C000031D0432E0015C0838252B005E083421DE
:1074D0007F315D0834214231DC0A04305C02031C38
:1074E000E1332B0008004D084E04031916324D08F5
:1074F0002900A0002B004E082900A1002B004F08F6
:107500002900A20003302500A1000230AE000430A3
:10751000AF0008222B00CD01CE0122008E112B00DE
:1075200050080B000D32143216321A320932103262
:107530001F322132F024CC005108CB00D001352C71
:1075400009252B0003181932CB018030CC00F6330B
:10755000CC30D92412324430D9244D30D2000D32EF
:10756000F024FF3A03190932D208031D352CEC33FD
:10757000BE30D9240232F024D100D00A352C2200AA
:107580008E120E1121008E120E111C202600A51B3A
:10759000033221000E170D1621008C160C14F93041
:1075A00028009D004E309E0000302B002625352CF3
:1075B0002100931528001E15352C28001E112100CE
:1075C0009311352C2500A108031D28322F083F3ABE
:1075D000031D24322E0F0E3202302900A200331771
:1075E000B115A7000430A8000130A900AA010314B6
:1075F0002B0008002E082900A1005E3A031904326E
:10760000153A03190432352C0D302B0002320430A8
:107610002B002900A2000330A000E9332E085E3AB7
:1076200003190432153A03194632C6322F083E3A7E
:1076300003190D323E3A03191532013A0319123279
:1076400002302B00F300053008222B000800A108AF
:10765000031D5D3201302900A0008130A100A2008D
:10766000033026322108031D0632FA202900201497
:1076700004302500A100043A2B00031D48329F303E
:10768000860004308700413FC000401C033289243B
:1076900001303E24C01C0432C12481302B003E2422
:1076A000401D0432C72481302B003E249F30060247
:1076B0002500A1009C332F083E3A031904323E3ABC
:1076C00003190932BD33A108031D213204302900FA
:1076D000A0000130ED3313002B00C0000130C100C9
:1076E0000430C200C3001000C400C40803190532EE
:1076F000C20A4403C405031DFB3300303121C30B10
:10770000F233250021082B0042060319033205300D
:107710002B009833D330860005308700C30143081F
:1077200022005C252B00031C043241082900A00420
:107730002B00401C3732C401C5011000C60046367C
:1077400003192332C5017F304605C4004504031DDB
:10775000023201307733F030C700C61F02320430E6
:10776000C7004408C9004508CA001030C800C43525
:10777000C50DC90DCA0D031C04324708C4070030EB
:10778000C53DC80BF4330130C6004608E00043088D
:1077900038258B132B00440834214131450834210E
:1077A0007F318B174231C135C036C30A04304302E2
:1077B000031CB53304307C3321005732C0308600BF
:1077C0000430870016005E3A031D4F32413F1F39D7
:1077D000C000160003191132013A03190432803A2D
:1077E000031906324232C008031D3F3240080432FA
:1077F0004036031D3A32400AC00025002F08103AD7
:1078000003190832803A03190532703A031902321B
:1078100021002B322B00400803190732013A0319CB
:107820000632033A03190632203289240532C12474
:107830002B000232C7242B00031C17324131011CDC
:107840001432413FCD00423FCE00433FCF000D32C6
:1078500029004008103A03190632803A031903320E
:10786000703A031D02322B00B80103102B000800F0
:10787000031408000310080041313429C100250019
:107880002F0B03322B0041083C2474082B003C24AE
:10789000C11B08007508F0330230B800E93302302C
:1078A000B900BA01E5332F08903A03190632703A4D
:1078B000031926323A242B0008002B005F18EC3302
:1078C000F51B0632993074020630753B0318E43319
:1078D000F51F0632C0307402FE30753B031CDC33EA
:1078E00004307407C1000030753DC200420CC30073
:1078F000410CC30C890CC30C890C2C3EB800B83366
:107900002B005F18CC3380307506BA007408B900BC
:10791000AF335F104B08F4004C08F500F408031D6A
:107920000332803A03195F142500BD3321009D0006
:1079300010309E000130762021009D149D18FE33EA
:107940001C36F40025002F08103A03190632803A3D
:10795000031912323A242B000800010E0F390936A0
:10796000013E2B00C1007408890CC10BFD33B81413
:1079700003187E3338107C33043074072B00B800B2
:10798000773323000C1401309624230008002300D1
:107990008C16113096242300080000320032003289
:1079A0000032003200320000FF3E031908000032AE
:1079B000F433C2000830C3008B1321008E11003253
:1079C0002B000032421C023221008E158B170C3026
:1079D000CD2421008E152B00C236C30BED330800D9
:1079E0000830C1008B1321008E1100322B000032B1
:1079F00021008E150330CD24031020008E190314AE
:107A00008B172B00C00C0930CD24C10BEB33400881
:107A1000080022008E1121008E116430CD248E15B5
:107A20008B130E30CD248B1720008E1D053256305F
:107A3000CD243A24210008005630CD2438242100DA
:107A40000800C100CC30D9244108B333C000092557
:107A50002B00031C0F334E302125D924D924400894
:107A6000D92409252B00031C053348302125003378
:107A70000B001A32113208326018033222008D13C3
:107A8000023222008D1708006018033222000C1108
:107A9000023222000C1508006018033222000E1179
:107AA000023222000E1508006018033222008E12E6
:107AB000023222008E16080003100B000E3209322B
:107AC00004328D1F0D3203140B320C1D09320314C6
:107AD00007320E1D0532031403328E1E01320314C9
:027AE00008009C
:00000001FF
