#$41
#$38;39;40;41;42 
#$15/11/2017 15:22:36
#$Plug-in: CustomDpaHandler-ChangeIQRFOS-7xD-V302-171116
# ***********************************************
0722e25931db5fd3772edebf113832ac2dad0000
8cd176abd455b1e132009b609673a1ced4650001
de37b68ffbbcf4ffb22de82d0be97e1ddcb80002
b60eb1620bb65888bf86228c39d043cbc4980003
c17ba6c42b39685b92f0f87d4862d2c1cc8c0004
c862dde06559f78a19317a33ac4edc46f4690005
81f0979504ea46a986f4e725c6fac2e2fc350006
103d16d1911d27b6681bc76c15d77fb3e4010007
c7ec4f3724d7eccea5279fe7872bc4d0ec570008
20fc749bb196912c462534f738feb9f717c60009
01459d88f9791a5535f66c7d179fdb491fb9000a
451227491d45af72b6f8220f193663e207c1000b
758d6b7ce21e304cd92c9dcccbdc640a0f5f000c
1f4040b542e64c14c3b003de096fc69837a2000d
dd86b84dc54c3b214c832af3ee817f9e3f6e000e
273019e0542363f9f9929839be4526c327b6000f
01b073f25527ac0eb0861cc64f8ee9a02f490010
a13542c0ef5f95c9095c7568360d433957ab0011
e4b9d3f2ce17e4a73ed6cd2453d1368e5f650012
48f2e485160a7c8e77fe2f40c050112647370013
329f58b6a943a56e5ae48eba8dad726d4fa90014
dec76ee142c915c286f95d0b02f10cf277450015
f96675190ae4517d365036d9d701de257ffc0016
0ecff0f848403ea5dfaa2480785204fc67b60017
fe8d9de73d88f9133d24cb6af36c91e66f340018
2c7f51e30a9ee60bd38c44a78e9cdf5297b60019
dee78e086c9c36731e76c48144a0c0429f4f001a
7b55a6341ee2040ff2ab52da8983f492879f001b
3b0f6aeec38857231529e908d6c9f2e08fce001c
809be4dcc02d0f79db474e8dca78a3e4b730001d
a709409215c8a994843a6c78b895e6f1bf15001e
daf2dd701a959789dbb8b7ddf0b93c52a7a5001f
a46512d09b450ee5cb77ecf264f0d994aff50020
70f9020a4f284bd7a2b1b01317670766d7810021
403a4311bee9d403d089efeb9d006ee2df5a0022
bf172412119568189af2f252c60c1257c7790023
cdb60b235dc9ffbb05994c1f10df81e9cf390024
e4651bd1f165b0177f6285fd0853edd6f7b90025
b301c8414caa207b227ff28f77a100c2ff2e0026
b14555aad02a8f6055ba844b40308adfe7220027
bee5e1668372ce90a5028f46c99996d1ef530028
aab461f54d824ad567209823144f659516780029
5bc2aee741cbecc4824451d2c16521361ef4002a
4bba9552a1faa80e86038de81db44bc60687002b
01efc5115b485b9a6f3e5ecb927465120e8d002c
a6ef85b7be1b4bd699194fc96a6554283639002d
c720f9a08b2da13eca3e6199b31ffbad3e78002e
d3b8cd1e4db4013af55f60b1816a458d269b002f
f55fecd5a007b66039fbffcf281cb4a52e840030
2b8e0dd393b240f05c9b9842c0c084c156ad0031
7bf5667021f4f5bed8eae055db353d235e750032
839911800a0231ae584462aeaa12bafd467f0033
9c30d841bcfb6db969462e2f107bbac04e170034
a97d521d5d0218d4c592d3015d33186176d90035
f76ab39e4be44b75632b9437dd10b5337e050036
19d431a2b1f42b4884b650a9b0d45ccf66750037
bfe4ffb28f309547c56c7538fe39ad2e6edb0038
c29e1529d38318c9b62080792373768a96590039
a1dc8f37c008e7223e510a346598f9379ed8003a
64990d5e1d1668adf7a218936edfe091868f003b
875df70f6eeb833edad2a0aba9df82b78e69003c
abe1356bb6750dbdb130d0483c8e4f68b668003d
37cb9a1bad9000b6fd08d3ded5b61af5bea3003e
cf2db4146553928fa16f7ecae5b48bcca6cc003f
0cfd912dec225cea0232485bd44f18edaed60040
3593322b1ccfb428f0e701af687f459ad6660041
7d619d80e9a5bb873ee4a160b882ef26ded60042
4109745adac3c508f5983c8cc76165acc6410043
44c4db97b8db86ca481e8c7190aed134ce990044
575f3827c04a7fcbecdf8b01a863dd97f6e70045
1fd4898f955a2fb2f082c8eb83ec2dd9fe280046
a2c1466cb366a39fa0e2a1508d5ce2c1e6c20047
325e94dd5ac2bc0fb2f0d0af0561dfffeec10048
11c2ce7ccdcf8848a1bd957b960f98b411630049
49386e4ff51847171796a4c9dc1ba38819f6004a
877121fa4a4f11afe506aa4da859b51f01ea004b
eafa862c362efe3e79b35c22726dd833093e004c
121dc2438db8edc259daa8fdb1c6448b3170004d
38ab1e5023af9d7172527387c7057d6b394b004e
4e3f3afdb8ac75189f15feb8abfe7c4021e0004f
d6f191aeb43aba3c7da0d71e627f6e35290e0050
9fa6d09dda0b8dbbf7dc5ebcb6ae8c9e512c0051
6c5152d0dfc9eece5ab7b497ba0b7b4b59df0052
42f8fc4884785f4bd3bf17be6a46e4a041b20053
01e323fef92bc8758beb20d1c34243ee49ed0054
86e3dfa70f2771508d1cec891bd23fb971cb0055
c70347bd5b219acec4954d785e6f5a9d79dc0056
5ad5501a4bc2199f99b93a8e39f220d561820057
03c9b513c2425c26bab285074d1c2f9b69770058
39f5a416704198d54a96468d9a5a5a3b91b20059
b3321728cc3c7da42adfc6926bd521ac99f1005a
814fff5d2229dc20967f0c64cf64556c8194005b
d717b85210121b388060d1b6daf4b06389b9005c
5bc327b9880c08427b6a3753def3a1abb168005d
636a63560a3c54e3fa7f2b617ed33a9bb9f7005e
95f67720b6cb14ceecf9c260d67e58c3a12b005f
fa4cac2776fc41d9ef1a3a0050970f14a98a0060
1b5ed1e7be393601fc20023bffe80d6fd11f0061
b00e1d912feed415c5f4a5321cb89bd0d9dd0062
de4f4b8fa983a603baa174d476c3cfbbc1870063
e00e760aed5eb476cf88835af769b1dcc9130064
a9008118b87ef1e01cab74205d93471df1100065
6e484e64b7e6050ba0eaa69ed5cf317df9940066
e0452839f1561a6d334a386f7b51172de16e0067
9867447b781a8dbcd4151154b04f324fe9f60068
a7ca0cc8a6204e7e17c68c5a34153ee010cd0069
33867e02227402aee963335a99b6d2bb18e0006a
add82a34327ecb26f1935ed32476fc0f009b006b
a9250026cef918cadc592a1131f15288083e006c
c4262d555847cffc692196eddfabd78f3061006d
9487a0ac62ecc1f7e20c36a859663d6138b6006e
48921969f57f65ec940bde1303be80d4206b006f
9fd32e1fcc607c7635d2745ca5b82d5528f40070
4d1313f34d931238e7d2b47a0513bb5850550071
63923ad07bb598516d4f4c6f08f7986d58af0072
d4a473521aef8314f8ff6d5909cbfd7240f80073
d620220f7433eb45fd7bbdca30df85bd48be0074
9e8c10b58057267921998b509176762070d90075
a04e63cf4cb697a01875c6bf8294a479780c0076
da3ca8399c5d579931b4f0eb3d8d459460630077
3c88b18a9cf1b1f196a965ecb989918968800078
# ***********************************************