:020000040000FA
:020000000029D5
:0A020000B8310022803163000029AC
:047020000020080044
:04702C000020080038
:047032000020080032
:04703800002008002C
:047044000020080020
:04704A00002008001A
:047050000020080014
:04705600002008000E
:04705C000020080008
:047062000020080002
:0470680000200800FC
:04706E0000200800F6
:0470740000200134C3
:04707A0000200800EA
:0470800000200800E4
:0470860000200800DE
:04708C0000200134AB
:0470980000200800CC
:04709E0000200800C6
:0470A40000200800C0
:0470AA0000200800BA
:0470B00000200800B4
:0470B60000200800AE
:0470BC0000200800A8
:0470C20000200800A2
:0470C800002008009C
:0470CE000020080096
:0470D4000020080090
:0470DA00002008008A
:0470E0000020080084
:0470E600002008007E
:0470EC000020080078
:0470F2000020080072
:0470F800002008006C
:04710400002008005F
:04710A000020080059
:047110000020080053
:04711600002008004D
:04711C000020080047
:047122000020080041
:04712800002008003B
:04712E000020080035
:04713A000020080029
:047140000020080023
:04714600002008001D
:04714C000020080017
:047152000020080011
:04715800002008000B
:04715E000020080005
:0471640000200800FF
:0471700000200800F3
:0471760000200800ED
:04717C0000200800E7
:0471820000200800E1
:0471880000200800DB
:04718E0000200800D5
:0471940000200800CF
:04719A0000200800C9
:0471A00000200800C3
:0471A60000200800BD
:0471AC0000200800B7
:0471B20000200800B1
:0471B800002001347E
:0471BE0000200800A5
:0471C400002008009F
:0471D0000020080093
:0471D6000020013460
:0471DC000020080087
:0471E2000020080081
:0471E800002001344E
:0471EE000020080075
:0471F400002008006F
:047220000020080042
:04722600002008003C
:04722C000020080036
:047232000020080030
:04723800002008002A
:04723E000020080024
:0472440000200134F1
:04724A000020080018
:047250000020080012
:047262000020080000
:0472680000200800FA
:04726E0000200134C7
:0472740000200800EE
:04727A0000200134BB
:0472800000200800E2
:0472860000200800DC
:04728C0000200800D6
:0472920000200800D0
:0472980000200800CA
:04729E0000200800C4
:0472A4000020013491
:0472AA00002001348B
:0472B00000200800B2
:0472B60000200800AC
:0472C20000200800A0
:0472CE000020080094
:0472D400002008008E
:0472DA000020080088
:0472E0000020013455
:0472E600002008007C
:08740000AC31042C20220432FF
:08741000AC310024BA31080080
:1074400064007008013A2B0003191032013A031945
:107450000E320A3A03198F32183A0319CB321A3A0C
:107460000319D4321B3A0319F432F932080025000B
:10747000A108031D20322F083F3A031D1C322E0F96
:107480000C3201302900A2003317A7005030A800A9
:10749000A901AA0103142B0008002E085E3A031D5F
:1074A00008325E302900A1000330A0000D30A20098
:1074B000F1332B00D4322E085E3A031D5A322F08C6
:1074C000403A03190C327E3A03191F323E3A03192F
:1074D0002632013A0319233202302B002F32A10841
:1074E00003192A3216002B0041242500A10BFA3380
:1074F00028307620503070212B004824031CCA33DA
:10750000342141312500A10AF733A108031D1432AB
:1075100001302900A0008030A1000230273221086C
:10752000031D0632FA202900201404302500A10092
:10753000043A2B000319073205302B00F300053005
:1075400008222B00080036239F3086000430870075
:10755000413FC000401C0332BF2301309323C01CB5
:1075600003320924803093239F3006022500A100B6
:1075700091332B007432312316005E3A031D6F32B3
:10758000413F1F39C000160003191132013A031997
:107590000432813A031906326232C008031D5F3299
:1075A00000010432C008031D5A320130C00025001A
:1075B0002F08903A03190532703A031902322B0052
:1075C0004E322B003623400803190432013A0319C6
:1075D00003324532BF2301320924031C40323123D8
:1075E000433F091C3C32443FCC00453FCD00463F61
:1075F000CE00353229004008903A03190332703A20
:10760000031D02322B00B8012B00293222000E1577
:1076100021000E1122000E1221000E1223009D1BCC
:10762000163279201C202600A51B043221008E165C
:107630008C160D1621008E170E13CF3023009B00E1
:107640009C0108309F0024309E0090309D002B004C
:107650000632711020000C1C711425001B3303101E
:107660000800C030860004308700080022000E1693
:10767000DC20013041240430412475304124323073
:1076800041240030412402304124CA3041240830D2
:1076900041247C207408C1007508C200303070217C
:1076A000C3014824031C073234214131C30A430873
:1076B000403A03190C327C204108F4024208F53BA1
:1076C0007508031D043203307402031CEA334710AB
:1076D0004308093A031D21327731403F013A031D27
:1076E0001C32413F043A031D1832423F043A031D45
:1076F0001432FF30C500C60016002624C30BFC332D
:1077000045084604031D09327B3FC8007A3FC90083
:107710007D3FCA007C3FCB00471422000E122B0095
:10772000080041313429C10025002F0B03322B0002
:107730004108912374082B009123C11B0800750890
:10774000F0330230B800B900BA010314080074081D
:10775000C2007508C300C4011030C100C20DC30DC2
:10776000C40D031804320A304402031C03320A30E9
:10777000C4020314F40DF50DC10BF0330800F4013D
:107780008030F500471C0A324A0EF4000F39F5002C
:10779000F030F4054B0EF039F504A72325002F082F
:1077A000903A03190932703A0319293201302B003B
:1077B000B900BA01031008002B00471CC233F51BA7
:1077C0000632993074020630753B0318BA33F51F40
:1077D0000632C0307402FE30753B031CB2330430F5
:1077E0007407C1000030753DC200420CC300410C5B
:1077F000C30C890CC30C890C2C3EB80008322B003A
:10780000471C9F3380307506BA007408B900031412
:107810000800EE30F400471C05324835F400490DED
:10782000F500A72325002F08903A031905320130EF
:107830002B00B800031008007408EE3A2B0003195F
:10784000803304307407B800031408004506460668
:10785000C6064606C500460E46068918013A0919AD
:10786000013A8919013A0139C506890CC60C403024
:107870000318C506460DC606C60C80300318C5069B
:1078800008002000111EFE3323009A002B00080080
:107890002000911E043223001D1D0432190803101C
:1078A0002B00080019089D1C03321D121D16F7330A
:0678B00003142B00080088
:00000001FF
