:020000040000FA
:020000000029D5
:0A020000B8310022803163000029AC
:047020000020080044
:04702C000020080038
:047032000020080032
:04703800002008002C
:047044000020080020
:04704A00002008001A
:047050000020080014
:04705600002008000E
:04705C000020080008
:047062000020080002
:0470680000200800FC
:04706E0000200800F6
:0470740000200134C3
:04707A0000200800EA
:0470800000200800E4
:0470860000200800DE
:04708C0000200134AB
:0470980000200800CC
:04709E0000200800C6
:0470A40000200800C0
:0470AA0000200800BA
:0470B00000200800B4
:0470B60000200800AE
:0470BC0000200800A8
:0470C20000200800A2
:0470C800002008009C
:0470CE000020080096
:0470D4000020080090
:0470DA00002008008A
:0470E0000020080084
:0470E600002008007E
:0470EC000020080078
:0470F2000020080072
:0470F800002008006C
:04710400002008005F
:04710A000020080059
:047110000020080053
:04711600002008004D
:04711C000020080047
:047122000020080041
:04712800002008003B
:04712E000020080035
:04713A000020080029
:047140000020080023
:04714600002008001D
:04714C000020080017
:047152000020080011
:04715800002008000B
:04715E000020080005
:0471640000200800FF
:0471700000200800F3
:0471760000200800ED
:04717C0000200800E7
:0471820000200800E1
:0471880000200800DB
:04718E0000200800D5
:0471940000200800CF
:04719A0000200800C9
:0471A00000200800C3
:0471A60000200800BD
:0471AC0000200800B7
:0471B20000200800B1
:0471B800002001347E
:0471BE0000200800A5
:0471C400002008009F
:0471D0000020080093
:0471D6000020013460
:0471DC000020080087
:0471E2000020080081
:0471E800002001344E
:0471EE000020080075
:0471F400002008006F
:047220000020080042
:04722600002008003C
:04722C000020080036
:047232000020080030
:04723800002008002A
:04723E000020080024
:0472440000200134F1
:04724A000020080018
:047250000020080012
:047262000020080000
:0472680000200800FA
:04726E0000200134C7
:0472740000200800EE
:04727A0000200134BB
:0472800000200800E2
:0472860000200800DC
:04728C0000200800D6
:0472920000200800D0
:0472980000200800CA
:04729E0000200800C4
:0472A4000020013491
:0472AA00002001348B
:0472B00000200800B2
:0472B60000200800AC
:0472C20000200800A0
:0472CE000020080094
:0472D400002008008E
:0472DA000020080088
:0472E0000020013455
:0472E600002008007C
:08740000AC31042C20220432FF
:08741000AC310024BA31080080
:1074400064007008013A2B0003191C32033A031937
:107450002332023A03199F320A3A0319512B183A80
:1074600003199E2B113A0319A92B043A0319C32BB4
:10747000013A0319C82B0F3A0319C82B013A031913
:10748000CD2B102C2000931D053293112B00D20818
:10749000031DD2032B0008004F08500403191732B4
:1074A0004F082900A0002B0050082900A1002B0044
:1074B00051082900A2002B00CF01D0010330250084
:1074C000A1000230AE000430AF0008222B00C81823
:1074D0006032D208031D5D320C302500AE00023050
:1074E000AF0004302B00C806481D1B320230D2000A
:1074F000FF302900A0000130A1000430A200753047
:10750000A3003230A400A5010330A6000B30A70071
:10751000C830A80009302500A10004300822250049
:10752000383248104D30D2002900A001013025002A
:10753000A10004300822250021080B3A031D29323E
:1075400055307021003F013A031D2332013F043AB8
:10755000031D1F32023F063A031D1B32FF30C600D7
:10756000C7001600DC242500A1032B00031DF933FE
:1075700046084704031D0D32043FCB00033FCC00F7
:10758000063FCD00053FCE00083FC900073FCA00B7
:1075900048142100102C25002E0F13322F083F3ADB
:1075A000031D0F32A108031D0C3201302900A20077
:1075B0003317A7001030A800A901AA0103142B005B
:1075C00008002E0A031915322F083F3A031D113205
:1075D000A108031D0E322E085E3A031D08325E30EC
:1075E0002900A1000330A0000C30A200E7332100E5
:1075F000102C2E085E3A031D52322F083E3A031912
:107600000C323E3A03191432013A03191132023096
:10761000F300053008222B000800A108031D2032CA
:1076200001302900A0008030A1000330A2003432D4
:107630002B00C81C073220000130F300053008225F
:107640002B00080025002108031D0632FA2029001E
:10765000201404302500A100043A2B000319053240
:107660000530F30008222B0008009F30860004300C
:107670008700413FC000401C0332452401301624DE
:10768000C01C03328E2480301624401D0332A924EE
:10769000033016249F3006022500A1008F332100FD
:1076A000BF32C03086000430870016005E3A031DEA
:1076B000B732413F1F39C000160003191932013A91
:1076C00003190732813A03190932833A03190B323D
:1076D000A732C008031DA43200010932C008031DEF
:1076E0009F3201300432C008031D9A320230C000BC
:1076F00025002F08903A03190532703A0319023217
:1077000021008E322B00400803190732013A031979
:107710000632033A031905328332452403328E249C
:107720000132A924031C7C324131811F7932413F4F
:10773000CF00423FD000433FD100723229004008C1
:10774000903A03190332703A031D6A322B00B801D4
:107750006732FF3028009D007F309E000C302500EE
:10776000AE00AF0104302900A00001302500A100C7
:107770000430082225002E08FE3A031D02322B0099
:10778000C81421004D322100931528001E154832DF
:1077900028001E1121009311433221000E112200F6
:1077A0000E15B8200318153220000C1C04322520B9
:1077B00019307320F93325204321031CF5332400AD
:1077C000201620002B002E2020000C1CFB332B0049
:1077D000DE2A2930F000200005302B0073202E20F7
:1077E00020000C180232F00BF7332B003120F00888
:1077F000031DDE2A0630F00020000A302B00732023
:1078000020000C180232F00BF833F0082B0003199B
:10781000DE2A22000C15BB20643073202820DE2ACB
:1078200003102B000800413120003429C10025003D
:107830002F0B03322B004108132474082B00132450
:10784000C11B08007508EF330230B80003140800AC
:107850000230B900BA01031408007408C3007508A7
:10786000C400C5011030C200C30DC40DC50D0318FE
:1078700004320A304502031C03320A30C5020314E5
:10788000F40DF50DC20BF03308004114F401803003
:10789000F500481C0B3241104D0EF4000F39F50075
:1078A000F030F4054E0EF039F5042D2425002F0894
:1078B000903A03190632703A0319263203102B004E
:1078C00008002B004118C033F51B063299307402B2
:1078D0000630753B0318B833F51F0632C03074020A
:1078E000FE30753B031CB03304307407C200003017
:1078F000753DC300430CC400420CC40C890CC40C7D
:10790000890C2C3EB80008322B004118A13380307E
:107910007506BA007408B90003140800EE30F400CC
:10792000481C05324B35F4004C0DF5002D24250084
:107930002F08903A0319033203102B000800740833
:10794000EE3A2B000319803304307407B800031497
:1079500008004114F4018030F500481C0532411044
:107960004908F4004A08F50025002F08903A031949
:107970000632703A0319153203102B0008002B0051
:1079800041186233B13074020F30753B03185C3319
:10799000740E0F39C200750EF0394204043EB8006F
:1079A00009322B004118543304307407B9000030F9
:1079B000753DBA000314080046064706C706470689
:1079C000C600470E47068918013A0919013A891974
:1079D000013A0139C606890CC70C40300318C606A7
:0E79E000470DC706C70C80300318C606080006
:00000001FF
