:020000040000FA
:020000000029D5
:0A020000B8310022803163000029AC
:047020000020080044
:04702C000020080038
:047032000020080032
:04703800002008002C
:047044000020080020
:04704A00002008001A
:047050000020080014
:04705600002008000E
:04705C000020080008
:047062000020080002
:0470680000200800FC
:04706E0000200800F6
:0470740000200134C3
:04707A0000200800EA
:0470800000200800E4
:0470860000200800DE
:04708C0000200134AB
:0470980000200800CC
:04709E0000200800C6
:0470A40000200800C0
:0470AA0000200800BA
:0470B00000200800B4
:0470B60000200800AE
:0470BC0000200800A8
:0470C20000200800A2
:0470C800002008009C
:0470CE000020080096
:0470D4000020080090
:0470DA00002008008A
:0470E0000020080084
:0470E600002008007E
:0470EC000020080078
:0470F2000020080072
:0470F800002008006C
:04710400002008005F
:04710A000020080059
:047110000020080053
:04711600002008004D
:04711C000020080047
:047122000020080041
:04712800002008003B
:04712E000020080035
:04713400002008002F
:04713A000020080029
:047140000020080023
:04714600002008001D
:04714C000020080017
:047152000020080011
:04715800002008000B
:04715E000020080005
:0471640000200800FF
:0471700000200800F3
:0471760000200800ED
:04717C0000200800E7
:0471820000200800E1
:0471880000200800DB
:04718E0000200800D5
:0471940000200800CF
:04719A0000200800C9
:0471A00000200800C3
:0471A60000200800BD
:0471AC0000200800B7
:0471B20000200800B1
:0471B800002001347E
:0471BE0000200800A5
:0471C400002008009F
:0471D0000020080093
:0471D6000020013460
:0471DC000020080087
:0471E2000020080081
:0471E800002001344E
:0471EE000020080075
:0471F400002008006F
:047220000020080042
:04722600002008003C
:04722C000020080036
:047232000020080030
:04723800002008002A
:04723E000020080024
:0472440000200134F1
:04724A000020080018
:047250000020080012
:047262000020080000
:0472680000200800FA
:04726E0000200134C7
:0472740000200800EE
:04727A0000200134BB
:0472800000200800E2
:0472860000200800DC
:04728C0000200800D6
:0472920000200800D0
:0472980000200800CA
:04729E0000200800C4
:0472A4000020013491
:0472AA00002001348B
:0472B00000200800B2
:0472B60000200800AC
:0472C20000200800A0
:0472C800002008009A
:0472CE000020080094
:0472D400002008008E
:0472DA000020080088
:0472E0000020013455
:0472E600002008007C
:0472EC000020080076
:0472F2000020013443
:0672F80000200314080051
:08740000AC31042C20220432FF
:08741000AC310024BA31080080
:1074400064007008013A2B0003191F32033A031934
:107450005032023A031969320A3A0319F532183ADE
:107460000319702B113A03197B2B043A03198E2B45
:10747000013A0319972B0F3A0319972B013A031975
:10748000A12B1B3A0319A62BAC2B2000911E133203
:1074900023001908860020302B004F0203180B32FE
:1074A000CF0A20305107840006308501853DD10A7E
:1074B000D1120608312123009D181D121D1620002F
:1074C000111E15322100111E1232C0302B0052073E
:1074D000840003308501853D520A1F39D2005306CE
:1074E000031D023221001112000823009A002B0014
:1074F0000800540855040319AC2B54082900A000B7
:107500002B0055082900A1002B0056082900A200D5
:107510002B00D401D50103302500A1000230AE00BC
:107520000430AF0008222B00AC2B2500A108031D5E
:1075300021322F083F3A031D1D322E0F0D3201302C
:107540002900A2003317A7001030A8000330A900BB
:10755000AA0103142B0008002E085E3A031D08320E
:107560005E302900A1000330A0000D30A200F133ED
:107570002100F2322E085E3A031D64322F08403A91
:1075800003190C327E3A031923323E3A03192B3287
:10759000013A0319283202302B003432A1080319B2
:1075A0002F322130210203182B3216002B00DA244F
:1075B0002500A10BFA3328307620503070212B00A3
:1075C000F424031CC633342141312500A10AF733CA
:1075D000A108031D153201302900A0008030A10050
:1075E0000330A2002C322108031D0632FA202900A4
:1075F000201404302500A100043A2B00031907329F
:1076000005302B00F300053008222B000800B423BE
:107610009F30860004308700413FC000401C033289
:1076200028240130FD23C01C033271248030FD2347
:10763000401D03328C240330FD239F3006022500B9
:10764000A100873321008832AF2316005E3A031D64
:107650008332413F1F39C000160003191932013A25
:1076600003190732813A03190932833A03190B329D
:107670007332C008031D703200010932C008031DB7
:107680006B3201300432C008031D66320230C00084
:1076900025002F08903A03190532703A0319023277
:1076A00021005A322B00B423400803190732013A53
:1076B00003190632033A031905324E3228240332E5
:1076C000712401328C24031C4732AF23433F091C31
:1076D0004332443FD400453FD500463FD6003C32BC
:1076E00029004008903A03190332703A031D3432DE
:1076F0002B00BC01313221008E168C160D168E1710
:107700000E13CF3023009B009C0108309F002430D3
:107710009E0090309D00210091161E32C81C03323D
:107720002100111602322100111291161532C810D3
:1077300021009112111E03322B00C81421001112D6
:107740000B3221000E1122000E150632711020009E
:107750000C1C71142500A92A03102B000800C0304E
:1077600086000430870008000130DA240430DA246F
:107770007530DA243230DA240030DA240330DA24A7
:107780000B30DA24C830DA241430762030307021FF
:10779000C101F424031C043234214131C10AF933FC
:1077A000481041080B3A031D25327531403F013A1C
:1077B000031D2032413F043A031D1C32423F063A6A
:1077C000031D1832FF30C600C7001600BF24C10BCE
:1077D000FC3346084704031D0D32793FCB00783F48
:1077E000CC007B3FCD007A3FCE007D3FC9007C3F7F
:1077F000CA004814080041313429C10025002F0B6C
:1078000003322B004108FB2374082B00FB23C11B10
:1078100008007508F0330230BC00BD0103140800F5
:107820007408C3007508C400C5011030C200C30D40
:10783000C40DC50D031804320A304502031C03327F
:107840000A30C5020314F40DF50DC20BF033080025
:107850004114F4018030F500481C0B3241104D0EEC
:10786000F4000F39F500F030F4054E0EF039F50450
:10787000102425002F08903A03190632703A031994
:10788000263203102B0008002B004118C433F51BCF
:107890000632993074020630753B0318BC33F51F6D
:1078A0000632C0307402FE30753B031CB433043022
:1078B0007407C2000030753DC300430CC400420C85
:1078C000C40C890CC40C890C2C3EBC0008322B0063
:1078D0004118A13380307506BD007408BC00031444
:1078E0000800EE30F400481C05324B35F4004C0D16
:1078F000F500102425002F08903A031903320310D5
:107900002B0008007408EE3A2B000319843304306E
:107910007407BC00031408004114F4018030F50022
:10792000481C053241104908F4004A08F5002500BA
:107930002F08903A03190632703A031915320310D2
:107940002B0008002B0041186633B13074020F3051
:10795000753B03186033740E0F39C200750EF03991
:107960004204043EBC0009322B0041185433043059
:107970007407BC000030753DBD00031408004606C6
:107980004706C7064706C600470E47068918013A4C
:107990000919013A8919013A0139C606890CC70C3F
:1079A00040300318C606470DC706C70C80300318C1
:1079B000C6060800C2002100111E05322B00520825
:1079C00053060319F83321001112C0302B0053075E
:1079D000840003308501853DD30AD312420831214A
:1079E000210011162B000800CF08031D02320310DE
:1079F00008002100911220302B005007840006302F
:107A00008501853DD00AD012CF03000821009116D0
:067A100003142B00080026
:00000001FF
