{
  "applicationName": "iqrfgd2",
  "resourceDir": "",
  "dataDir": "configuration/da-ta-dir-share",
  "cacheDir": "configuration",
  "userDir": "",
  "configurationDir": "configuration",
  "deploymentDir": "../../..",
  "components": [
    {
      "name": "shape::TraceFormatService",
      "libraryPath": "shape/bin",
      "libraryName": "TraceFormatService",
      "enabled": true,
      "startlevel": -4
    },
    {
      "name": "shape::TraceFileService",
      "libraryPath": "shape/bin",
      "libraryName": "TraceFileService",
      "enabled": true,
      "startlevel": -3
    },
    {
      "name": "shape::LauncherService",
      "libraryPath": "",
      "libraryName": "",
      "enabled": true,
      "startlevel": -2
    },
    {
      "name": "iqrf::TestSimulationIqrfChannel",
      "libraryPath": "IqrfDaemon/bin",
      "libraryName": "TestSimulationIqrfChannel",
      "enabled": true,
      "startlevel": 0
    },
    {
      "name": "iqrf::IqrfDpa",
      "libraryPath": "IqrfDaemon/bin",
      "libraryName": "IqrfDpa",
      "enabled": true,
      "startlevel": 0
    },
    {
      "name": "iqrf::TestSimulationMessaging",
      "libraryPath": "IqrfDaemon/bin",
      "libraryName": "TestSimulationMessaging",
      "enabled": true,
      "startlevel": 0
    },
    {
      "name": "iqrf::JsonSplitter",
      "libraryPath": "IqrfDaemon/bin",
      "libraryName": "JsonSplitter",
      "enabled": true,
      "startlevel": 1
    },
    {
      "name": "iqrf::JsonDpaApiRaw",
      "libraryPath": "IqrfDaemon/bin",
      "libraryName": "JsonDpaApiRaw",
      "enabled": true,
      "startlevel": 3
    },
    {
      "name": "iqrf::TestJsonDpaApiRaw",
      "libraryPath": "IqrfDaemon/bin",
      "libraryName": "TestJsonDpaApiRaw",
      "enabled": true,
      "startlevel": 4
    }
  ]
}
