==================================
Sending to WebSocket: 2018-07-18 21:37:46.889
{
  "mType": "iqrfEmbedIo_Set",
  "data": {
    "msgId": "testEmbedIo",
    "req": {
      "nAdr": 1,
      "param": {
        "ports": [
          {
            "port": 0,
            "mask": 4,
            "value": 1
          }
        ]
      }
    },
    "returnVerbose": true
  }
}
Received from WebSocket: 2018-07-18 21:37:47.359
{
    "mType": "iqrfEmbedIo_Set",
    "data": {
        "msgId": "testEmbedIo",
        "rsp": {
            "nAdr": 1,
            "hwpId": 2,
            "rCode": 0,
            "dpaVal": 62,
            "result": {}
        },
        "raw": {
            "request": "01.00.09.01.ff.ff.00.04.01",
            "requestTs": "2018-07-18T21:37:48.358364",
            "confirmation": "01.00.09.01.ff.ff.ff.3c.01.04.01",
            "confirmationTs": "2018-07-18T21:37:48.389886",
            "response": "01.00.09.81.02.00.00.3e",
            "responseTs": "2018-07-18T21:37:48.522071"
        },
        "insId": "iqrfgd2-1",
        "statusStr": "ok",
        "status": 0
    }
}
2018-07-18 21:37:47.797
==================================

==================================
Sending to WebSocket: 2018-07-18 21:40:28.505
{
  "mType": "iqrfEmbedIo_Set",
  "data": {
    "msgId": "testEmbedIo",
    "req": {
      "nAdr": 1,
      "param": {
        "ports": [
          {
            "port": 0,
            "mask": 4,
            "value": 4
          }
        ]
      }
    },
    "returnVerbose": true
  }
}
Received from WebSocket: 2018-07-18 21:40:29.072
{
    "mType": "iqrfEmbedIo_Set",
    "data": {
        "msgId": "testEmbedIo",
        "rsp": {
            "nAdr": 1,
            "hwpId": 2,
            "rCode": 0,
            "dpaVal": 66,
            "result": {}
        },
        "raw": {
            "request": "01.00.09.01.ff.ff.00.04.04",
            "requestTs": "2018-07-18T21:40:29.971929",
            "confirmation": "01.00.09.01.ff.ff.ff.38.01.04.01",
            "confirmationTs": "2018-07-18T21:40:30.4220",
            "response": "01.00.09.81.02.00.00.42",
            "responseTs": "2018-07-18T21:40:30.124945"
        },
        "insId": "iqrfgd2-1",
        "statusStr": "ok",
        "status": 0
    }
}
2018-07-18 21:40:29.574
==================================

