{
  "mType": "mngMetaData_ImportMetaDataAll",
  "data": {
    "msgId": "test_ImportMetaDataAll_valid",
    "req": {
      "metaIdMetaDataMap": [
        {
          "metaId": "1",
          "metaData": {
            "sn": 1,
            "pname": "sensor1"
          }
        },
        {
          "metaId": "2",
          "metaData": {
            "sn": 2,
            "pname": "sensor2"
          }
        },
        {
          "metaId": "3",
          "metaData": {
            "sn": 3,
            "pname": "sensor3"
          }
        },
        {
          "metaId": "4",
          "metaData": {
            "sn": 4,
            "pname": "sensor4"
          }
        },
        {
          "metaId": "4",
          "metaData": {
            "sn": 4,
            "pname": "sensor4"
          }
        }
      ],
      "midMetaIdMap": [
        {
          "mid": "111",
          "metaId": "1"
        },
        {
          "mid": "222",
          "metaId": "2"
        },
        {
          "mid": "333",
          "metaId": "3"
        },
        {
          "mid": "444",
          "metaId": "4"
        },
        {
          "mid": "444",
          "metaId": "5"
        }
      ]
    },
    "returnVerbose": true
  }
}