#$41
#$42;43 
#$22/11/2018 14:20:54
#$Plug-in: CustomDpaHandler-ChangeIQRFOS-7xD-V303-181107
# ***********************************************
e93225bf325e14def367f83b177239ad2d960000
a5353e7c148a59d27a3319fe619eb6f8d4970001
e2a4f4bf251a08c6a34c282d8f0989c7dcb80002
4755ff93fbc5ed3806623391a8254c43c46e0003
79d77c3c320b78b52c9b7f2bbfe33798cc870004
95c21a6a9b6e7d7435253edd6724026cf4210005
2ef617c7df412864f10c6fee05e6b254fc220006
59ce5e2465e8e816d37c986edacad827e41f0007
b2681e36c8e96f857780d469b99c1d36ec030008
955fb10e4411978ce195ad53d6ed3d6317030009
0ce403b15cad52b338b2eb3dbff9b06b1f0f000a
c9149c1327621bd2735e41712eb01ab407b5000b
3f75e6f2dd95f240219df9421017a2390f2a000c
713a5d62fec17ae50295b5cb40fa660f37ac000d
04d3b8b1b7ec8a3db35ba22d7b05c06f3f77000e
d7ee59fed5996f4bbdfb1a4cb489111d2758000f
3c009c3ee682cede3aed054df22bf9cf2fdc0010
4a86b22263b2bd2c02fbca4d4a39c9e257eb0011
645cc706fe528aaf65c65f789ef51d445f1f0012
27149aa5620fd8be302465de412e55dc47410013
ffbf467df4eba5ba2230584e62f6afdd4fb80014
62cef2b5c6ad36ef924cf256ed81a040773a0015
33d6df9137391976a0803417c079704e7f7d0016
459786349eca2f9af3a1d79af6e7f23967c40017
992dc6a4540866384ba386d16476fe2e6f050018
b4f4788816c4074eb2aa5c4e8e99587397170019
02bd54e35104cbeb9f5a87ed9f3df6fb9f57001a
91e45dfaeec914e4a54ba6b459aba4478714001b
8f1a8d691f4ed7d6ab39f66b47b06e0f8ffe001c
49c030a88a0ce929c025cb88269a2436b733001d
5c69044a60bef37dd6b28e0ed3d4402ebfb9001e
861f623c3505e232067fe5ef9b5c1a23a76e001f
8e47cda18ff9dbad369e062224824c03af3a0020
6867d04ac2213e4e64cbbabf2876c3dad7360021
292ca8161e15b827c69691c32fdb0a76df550022
b5d43e593059955bff4fe7a9f9c70e77c7f80023
6dacaeef33f149e33fe5031e63fc4e4acf6b0024
d65c5e549d675d350fbdee112b148537f70b0025
e90f6ab95035c2d450b7acfc52af4a07ff3f0026
2c2e084e2909384502f91179a4f40f6ee7190027
32fefa0a24c7300d0146b536ff1d4559ef0c0028
42767c4660f06d20faebc822ad9040d216ce0029
c934ef9ca7c7234a3cee5bde700cb7351e89002a
3991b1fb374bff5b6c438437a2a3a72206c5002b
17af99539cdc9b0e946f28a2ac20b4630e4b002c
b9b19c0456e741db920fcc9fa76026d53659002d
fe637c2aec4c7ab027b2cc633487403d3ed8002e
4c1180eba7227ec4996c2dcb691eff262679002f
f2629a271c0b194557045bc5e462ebbb2e690030
53a7729cff9bcb454e208a87d6aa95b056e80031
fa1ede0fe42050fd28ac5ff1124014665e230032
a0b132237372eb77dca0dc5206d1c10e46390033
f25782196f8cfe9cb327b8241f6732d54e930034
d0d68a36929e80e5916f6365fef88b5a76660035
017898dfff5040612bc7dacd2d9da97f7e6e0036
14bb73ec450a0032939d616854b495a5667f0037
97ed14030c6687685be5bc04714b82876e210038
26f81e30dd1006e8f7a7c4cb3532758996000039
e2b5442296bf34d9161c457ec410f8309ec4003a
5c4738605f846218ad7e3567865d1cd08658003b
6185be1c7bc598e23d5adf6f3322195e8ed6003c
612c475c95661f82f9a07952fedf0e90b61b003d
b860bb4b35537b6d6e364d8906b0d7d1be65003e
c3cc9de54b8f43cbccc1f5bbd866ac72a64b003f
6638bc60f660f78b29e3bffeb2708e3aae210040
050002e6a9272e22f4ce2d4011ea5815d6b90041
465e691e5b3342a06747a5d18f706d7fde040042
8789e1970b0c6e8d013b7fa774f9c93fc6130043
c1512d81bac9bce49733768cf42cdc0fce220044
4a5445280db4c66a9a8d77b467b64019f6000045
e5832daaa76d0ab73e8c013e5002c465fe180046
4003d9495917d68ba10039e733ac8d67e6370047
ec5a0fe8ca0d58c66a5c9da870e58752ee9e0048
052bc0fc703bb65fb2a2a8b6239118d811a70049
a9a25b0cb2051fff52392334203e0cb119c0004a
8c0ad7e72c396ca9d44f2336a980235001c2004b
16155d51afb265be7b23b91d223a637409e1004c
0535d70d9a30a5ccba165981def01820316c004d
84b8e8591e6d88273aa74b5d6d1bb7e839fa004e
baae3d8a5131662d98b0d476bdbc08da21f9004f
2c63e3ab079a5ec61d0026eebc18bba7294c0050
30da078889fdd17bf665275a0e61643b51560051
94bfef351a34294d5e7b5a4483d365da59540052
1f02b8d4a1146b28c46130b110f792f7412c0053
f74568e563b8cc6130bcbdfb6b8f16b449a90054
23e090987d13aac9b7037c04a52f39e071450055
c1dd17bf2dc9df3ed232d80be577b19b794f0056
03b88813e327d6548b49c97580a809e861f50057
dc612346132ae3fe96576fb619ea3ab469a80058
00bd6febfe7c34f4833760eee92e24b9911c0059
76c4d4513c7e2f8c91010af871e10acf9971005a
27fd91822f5d685b44470c28d90c3d1e8108005b
a0015af6b4024979a34398d308fa47358923005c
e9534b2cb0c378274d46e2611ae7b0c8b14a005d
29fd2a51ca411753f5a326115205c71ab953005e
0d5c131b3c07abeee65fc6f44d7cb479a170005f
6caf03d1f22aa43b8f5cb29e7addb565a98b0060
748505149b44cfc03e7b49eaa8a0437fd1ad0061
6db2666ff4b132592fe5e43696d9090ad9a80062
f5594f862d8ed3f74b20a25717462a3bc19f0063
1614c4dab1dabae5c564066a5732474cc95e0064
ffcaa5b74aaeee34652e87d1f9487fbef1880065
f6754f28f0a11e107f15462c182231e0f9680066
90d1eb83b2beb2e92bdd2b7f1974784ee1020067
8f07f949db388136db6a3274f429dc71e9630068
89603bb15bcb0d0813d9290fa1302ed110550069
a19128b5de0ef123172dcfd2e779ab21185b006a
41d513a77abc9b20351804039ed3a3210026006b
f05bc3a84b37fa825a45f54fcf092719082b006c
7f6dbc29b2962930f4caa834513b44a9302a006d
ffff52caf3c1138b1a96c07c9b97be923815006e
60a6770b900e295b35d74274e1b395d920bd006f
1c91327daeba2d7a6cb7b4b3daf4796f283c0070
# ***********************************************