:020000040000FA
:020000000029D5
:0A020000B8310022803163000029AC
:047020000020080044
:04702C000020080038
:047032000020080032
:04703800002008002C
:047044000020080020
:04704A00002008001A
:047050000020080014
:04705600002008000E
:04705C000020080008
:047062000020080002
:0470680000200800FC
:04706E0000200800F6
:0470740000200134C3
:04707A0000200800EA
:0470800000200800E4
:0470860000200800DE
:04708C0000200134AB
:0470980000200800CC
:04709E0000200800C6
:0470A40000200800C0
:0470AA0000200800BA
:0470B00000200800B4
:0470B60000200800AE
:0470BC0000200800A8
:0470C20000200800A2
:0470C800002008009C
:0470CE000020080096
:0470D4000020080090
:0470DA00002008008A
:0470E0000020080084
:0470E600002008007E
:0470EC000020080078
:0470F2000020080072
:0470F800002008006C
:04710400002008005F
:04710A000020080059
:047110000020080053
:04711600002008004D
:04711C000020080047
:047122000020080041
:04712800002008003B
:04712E000020080035
:04713A000020080029
:047140000020080023
:04714600002008001D
:04714C000020080017
:047152000020080011
:04715800002008000B
:04715E000020080005
:0471640000200800FF
:0471700000200800F3
:0471760000200800ED
:04717C0000200800E7
:0471820000200800E1
:0471880000200800DB
:04718E0000200800D5
:0471940000200800CF
:04719A0000200800C9
:0471A00000200800C3
:0471A60000200800BD
:0471AC0000200800B7
:0471B20000200800B1
:0471B800002001347E
:0471BE0000200800A5
:0471C400002008009F
:0471D0000020080093
:0471D6000020013460
:0471DC000020080087
:0471E2000020080081
:0471E800002001344E
:0471EE000020080075
:0471F400002008006F
:047220000020080042
:04722600002008003C
:04722C000020080036
:047232000020080030
:04723800002008002A
:04723E000020080024
:0472440000200134F1
:04724A000020080018
:047250000020080012
:047262000020080000
:0472680000200800FA
:04726E0000200134C7
:0472740000200800EE
:04727A0000200134BB
:0472800000200800E2
:0472860000200800DC
:04728C0000200800D6
:0472920000200800D0
:0472980000200800CA
:04729E0000200800C4
:0472A4000020013491
:0472AA00002001348B
:0472B00000200800B2
:0472B60000200800AC
:0472C20000200800A0
:0472CE000020080094
:0472D400002008008E
:0472DA000020080088
:0472E0000020013455
:0472E600002008007C
:08740000AC31042C20220432FF
:08741000AC310024BA31080080
:1074400064007008013A2B0003191032013A031945
:107450000E320A3A03199632183A0319DF321A3AF1
:107460000319E8321B3A03193D2B432B0800250072
:10747000A108031D20322F083F3A031D1C322E0F96
:107480000C3201302900A2003317A7004030A800B9
:10749000A901AA0103142B0008002E085E3A031D5F
:1074A00008325E302900A1000330A0000D30A20098
:1074B000F1332B00E8322E085E3A031D61322F08AB
:1074C000403A03190C327E3A03191F323E3A03192F
:1074D0002832013A0319253202302B003132A1083B
:1074E00003192C3216002B008D242500A10BFA3332
:1074F00028307620503070212B009424031CCA338E
:10750000342141312500A10AF733A108031D1632A9
:1075100001302900A0008030A1000230A200033019
:107520002C322108031D0632FA20290020140430D1
:107530002500A100043A2B000319073205302B0067
:10754000F300053008222B0008004A239F308600F4
:1075500004308700413FC000401C0332D723013074
:10756000AB23C01C033221248030AB23401D0332E7
:107570003E240230AB239F3006022500A1008A334F
:107580002B008132452316005E3A031D7C32413FB9
:107590001F39C000160003191932013A03190732C6
:1075A000813A03190932823A03190B326C32C0084E
:1075B000031D693200010932C008031D6432013025
:1075C0000432C008031D5F320230C00025002F08BE
:1075D000903A03190532703A031902322B005332E4
:1075E0002B004A23400803190732013A03190632D7
:1075F000033A031905324732D723033221240132DB
:107600003E24031C40324523433F091C3C32443F87
:10761000CE00453FCF00463FD0003532290040081C
:10762000903A03190332703A031D02322B00B8015D
:107630002B00293222000E1521000E1122000E12FD
:1076400021000E1223009D1B163279201C202600DB
:10765000A51B043221008E168C160D1621008E17E4
:107660000E13CF3023009B009C0108309F00243074
:107670009E0090309D002B000632711020000C1CE3
:1076800071142500073303100800C0308600043051
:107690008700080022000E16DC2001308D24043003
:1076A0008D2475308D2431308D2400308D240330AD
:1076B0008D24FB308D24C8308D247C207408C100BB
:1076C0007508C20030307021C3019424031C0732B6
:1076D00034214131C30A4308403A03190C327C205B
:1076E0004108F4024208F53B7508031D04320330DB
:1076F0007402031CEA33471043080B3A031D25327A
:107700007531403F013A031D2032413F043A031DC9
:107710001C32423F063A031D1832FF30C500C60036
:1077200016007224C30BFC3345084604031D0D32BA
:10773000793FC800783FC9007B3FCA007A3FCB0041
:107740007D3FCC007C3FCD00471422000E122B0061
:10775000080041313429C10025002F0B03322B00D2
:107760004108A92374082B00A923C11B0800750830
:10777000F0330230B800B900BA01031408007408ED
:10778000C2007508C300C4011030C100C20DC30D92
:10779000C40D031804320A304402031C03320A30B9
:1077A000C4020314F40DF50DC10BF0330800F4010D
:1077B0008030F500471C0A324C0EF4000F39F500FA
:1077C000F030F4054D0EF039F504BF2325002F08E5
:1077D000903A03190932703A0319293201302B000B
:1077E000B900BA01031008002B00471CC233F51B77
:1077F0000632993074020630753B0318BA33F51F10
:107800000632C0307402FE30753B031CB2330430C4
:107810007407C1000030753DC200420CC300410C2A
:10782000C30C890CC30C890C2C3EB80008322B0009
:10783000471C9F3380307506BA007408B9000314E2
:107840000800EE30F400471C05324A35F4004B0DB9
:10785000F500BF2325002F08903A031905320130A7
:107860002B00B800031008007408EE3A2B0003192F
:10787000803304307407B80003140800F40180302A
:10788000F500471C04324808F4004908F5002500BB
:107890002F08903A03190932703A0319183201304F
:1078A0002B00B900BA01031008002B00471C6133FC
:1078B000B13074020F30753B03185B33740E0F390F
:1078C000C100750EF0394104043EB80009322B00A6
:1078D000471C4F3304307407B9000030753DBA00BF
:1078E0000314080045064606C6064606C500460EB1
:1078F00046068918013A0919013A8919013A0139EC
:10790000C506890CC60C40300318C506460DC606D0
:10791000C60C80300318C50608002000111EFE3377
:1079200023009A002B0008002000911E043223003F
:107930001D1D0432190803102B00080019089D1C96
:0E79400003321D121D16F73303142B0008002E
:00000001FF
