:020000040000FA
:020000000029D5
:0A020000B8310022803163000029AC
:047020000020080044
:04702C000020080038
:047032000020080032
:04703800002008002C
:047044000020080020
:04704A00002008001A
:047050000020080014
:04705600002008000E
:04705C000020080008
:047062000020080002
:0470680000200800FC
:04706E0000200800F6
:0470740000200134C3
:04707A0000200800EA
:0470800000200800E4
:0470860000200800DE
:04708C0000200134AB
:0470980000200800CC
:04709E0000200800C6
:0470A40000200800C0
:0470AA0000200800BA
:0470B00000200800B4
:0470B60000200800AE
:0470BC0000200800A8
:0470C20000200800A2
:0470C800002008009C
:0470CE000020080096
:0470D4000020080090
:0470DA00002008008A
:0470E0000020080084
:0470E600002008007E
:0470EC000020080078
:0470F2000020080072
:0470F800002008006C
:04710400002008005F
:04710A000020080059
:047110000020080053
:04711600002008004D
:04711C000020080047
:047122000020080041
:04712800002008003B
:04712E000020080035
:04713400002008002F
:04713A000020080029
:047140000020080023
:04714600002008001D
:04714C000020080017
:047152000020080011
:04715800002008000B
:04715E000020080005
:0471640000200800FF
:0471700000200800F3
:0471760000200800ED
:04717C0000200800E7
:0471820000200800E1
:0471880000200800DB
:04718E0000200800D5
:0471940000200800CF
:04719A0000200800C9
:0471A00000200800C3
:0471A60000200800BD
:0471AC0000200800B7
:0471B20000200800B1
:0471B800002001347E
:0471BE0000200800A5
:0471C400002008009F
:0471D0000020080093
:0471D6000020013460
:0471DC000020080087
:0471E2000020080081
:0471E800002001344E
:0471EE000020080075
:0471F400002008006F
:047220000020080042
:04722600002008003C
:04722C000020080036
:047232000020080030
:04723800002008002A
:04723E000020080024
:0472440000200134F1
:04724A000020080018
:047250000020080012
:047262000020080000
:0472680000200800FA
:04726E0000200134C7
:0472740000200800EE
:04727A0000200134BB
:0472800000200800E2
:0472860000200800DC
:04728C0000200800D6
:0472920000200800D0
:0472980000200800CA
:04729E0000200800C4
:0472A4000020013491
:0472AA00002001348B
:0472B00000200800B2
:0472B60000200800AC
:0472C20000200800A0
:0472C800002008009A
:0472CE000020080094
:0472D400002008008E
:0472DA000020080088
:0472E0000020013455
:0472E600002008007C
:0472EC000020080076
:0472F2000020013443
:0672F80000200314080051
:08740000AC31042C20220432FF
:08741000AC310024BA31080080
:1074400064007008013A2B0003191F32033A031934
:107450005032023A031969320A3A0319EF32183AE4
:1074600003195D2B113A0319682B043A03197B2B7E
:10747000013A0319842B0F3A0319842B013A03199B
:107480008E2B1B3A0319932B992B2000911E13323C
:1074900023001908860020302B004D0203180B3200
:1074A000CD0A20304F07840006308501853DCF0A84
:1074B000CF120608312123009D181D121D16200031
:1074C000111E15322100111E1232C0302B00500740
:1074D000840003308501853D500A1F39D0005106D4
:1074E000031D023221001112000823009A002B0014
:1074F0000800520853040319992B52082900A000D0
:107500002B0053082900A1002B0054082900A200D9
:107510002B00D201D30103302500A1000230AE00C0
:107520000430AF0008222B00992B2500A108031D71
:1075300021322F083F3A031D1D322E0F0D3201302C
:107540002900A2003317A7003030A8000330A9009B
:10755000AA0103142B0008002E085E3A031D08320E
:107560005E302900A1000330A0000D30A200F133ED
:107570002100DF322E085E3A031D5E322F08403AAA
:1075800003190C327E3A031923323E3A03192A3288
:10759000013A0319273202302B003332A1080319B4
:1075A0002E322130210203182A3216002B008F249C
:1075B0002500A10BFA3328307620503070212B00A3
:1075C000A924031CC633342141312500A10AF73315
:1075D000A108031D143201302900A0008030A10051
:1075E000023027322108031D0632FA202900201418
:1075F00004302500A100043A2B000319073205309E
:107600002B00F300053008222B000800A1239F3037
:10761000860004308700413FC000401C0332102424
:107620000130E623C01C033259248030E6239F300A
:1076300006022500A1008D3321007B329C23160019
:107640005E3A031D7632413F1F39C0001600031910
:107650001132013A03190432813A031906326932B0
:10766000C008031D663200010432C008031D6132E8
:107670000130C00025002F08903A03190532703AF6
:1076800003190232210055322B00A12340080319AF
:107690000432013A031903324C32102401325924C6
:1076A000031C47329C23433F091C4332443FD20012
:1076B000453FD300463FD4003C3229004008903A71
:1076C00003190332703A031D34322B00BC013132EE
:1076D00021008E168C160D168E170E13CF30230038
:1076E0009B009C0108309F0024309E0090309D003C
:1076F000210091161E32C81C0332210011160232DD
:107700002100111291161532C81021009112111E7C
:1077100003322B00C814210011120B3221000E116C
:1077200022000E150632711020000C1C7114250069
:10773000103303102B000800C0308600043087008F
:10774000080001308F2404308F2475308F243230AC
:107750008F2400308F2402308F24CA308F240830C9
:107760008F241430762030307021C101A924031CED
:10777000043234214131C10AF93348104108093A31
:10778000031D21327731403F013A031D1C32413F36
:10779000043A031D1832423F043A031D1432FF30ED
:1077A000C600C70016007424C10BFC33460847040A
:1077B000031D09327B3FC9007A3FCA007D3FCB00E1
:1077C0007C3FCC004814080041313429C100250019
:1077D0002F0B03322B004108E42374082B00E42311
:1077E000C11B08007508F0330230BC000314080008
:1077F0007408C3007508C400C5011030C200C30D71
:10780000C40DC50D031804320A304502031C0332AF
:107810000A30C5020314F40DF50DC20BF033080055
:107820004114F4018030F500481C0B3241104B0E1E
:10783000F4000F39F500F030F4054C0EF039F50482
:10784000F82325002F08903A03190632703A0319DD
:10785000263203102B0008002B004118C533F51BFE
:107860000632993074020630753B0318BD33F51F9C
:107870000632C0307402FE30753B031CB533043051
:107880007407C2000030753DC300430CC400420CB5
:10789000C40C890CC40C890C2C3EBC0008322B0093
:1078A0004118A23380307506BD007408BC00031473
:1078B0000800EE30F400481C05324935F4004A0D4A
:1078C000F500F82325002F08903A0319033203101E
:1078D0002B0008007408EE3A2B000319853304309E
:1078E0007407BC000314080046064706C70647068F
:1078F000C600470E47068918013A0919013A891945
:10790000013A0139C606890CC70C40300318C60677
:10791000470DC706C70C80300318C6060800C20012
:107920002100111E05322B00500851060319F833AF
:1079300021001112C0302B00510784000330850153
:10794000853DD10AD11242083121210011162B00A8
:107950000800CD08031D0232031008002100911217
:1079600020302B004E07840006308501853DCE0A6D
:10797000CE12CD0300082100911603142B0008003D
:00000001FF
