:020000040000FA
:020000000029D5
:0A020000B8310022803163000029AC
:1006000000000000000000000000000000000000EA
:1006100000000000000000000000000000000000DA
:1006200000000000000000000000000000000000CA
:1006300000000000000000000000000000000000BA
:1006400000000000000001000100010001000100A5
:100650000100010001000100010001000100010092
:100660000100010001000100010001000100010082
:100670000100010001000100010001000100010072
:100680000100010001000100010001000100010062
:10069000010001000100010002000200020002004E
:1006A000020002000200020002000200020002003A
:1006B000020002000200020002000200020002002A
:1006C0000200020002000200020002000300030018
:1006D00003000300030003000400040004000400FE
:1006E00004000400040004000500050005000500E6
:1006F00005000500050005000600060006000600CE
:1007000006000600070007000700070007000700B3
:100710000800080008000800090009000900090095
:100720000A000A000A000B000B000B000C000C0072
:100730000C000D000D000D000E000E000E000F004D
:100740000F00100010001100110012001200130021
:1007500013001400140015001500160017001700F0
:100760001800180019001A001B001B001C001D00B7
:100770001D001E001F002000210022002300240075
:10078000250026002700280029002A002B002C0025
:100790002D002F00300032003300350036003700C6
:1007A00039003B003C003E003F0041004300450053
:1007B000470049004B004D004F00510053005600C8
:1007C00058005B005D0060006200650068006B001F
:1007D0006E007100740077007A007E008100850051
:1007E00088008C009000940098009C00A100A50057
:1007F000AA00AE00B300B800BD00C300C800C80026
:047020000020080044
:04702C000020080038
:047032000020080032
:04703800002008002C
:047044000020080020
:04704A00002008001A
:047050000020080014
:04705600002008000E
:04705C000020080008
:047062000020080002
:0470680000200800FC
:04706E0000200800F6
:0470740000200134C3
:04707A0000200800EA
:0470800000200800E4
:0470860000200800DE
:04708C0000200134AB
:0470980000200800CC
:04709E0000200800C6
:0470A40000200800C0
:0470AA0000200800BA
:0470B00000200800B4
:0470B60000200800AE
:0470BC0000200800A8
:0470C20000200800A2
:0470C800002008009C
:0470CE000020080096
:0470D4000020080090
:0470DA00002008008A
:0470E0000020080084
:0470E600002008007E
:0470EC000020080078
:0470F2000020080072
:0470F800002008006C
:04710400002008005F
:04710A000020080059
:047110000020080053
:04711600002008004D
:04711C000020080047
:047122000020080041
:04712800002008003B
:04712E000020080035
:04713A000020080029
:047140000020080023
:04714600002008001D
:04714C000020080017
:047152000020080011
:04715800002008000B
:04715E000020080005
:0471640000200800FF
:0471700000200800F3
:0471760000200800ED
:04717C0000200800E7
:0471820000200800E1
:0471880000200800DB
:04718E0000200800D5
:0471940000200800CF
:04719A0000200800C9
:0471A00000200800C3
:0471A60000200800BD
:0471AC0000200800B7
:0471B20000200800B1
:0471B800002001347E
:0471BE0000200800A5
:0471C400002008009F
:0471D0000020080093
:0471D6000020013460
:0471DC000020080087
:0471E2000020080081
:0471E800002001344E
:0471EE000020080075
:0471F400002008006F
:047220000020080042
:04722600002008003C
:04722C000020080036
:047232000020080030
:04723800002008002A
:04723E000020080024
:0472440000200134F1
:04724A000020080018
:047250000020080012
:047262000020080000
:0472680000200800FA
:04726E0000200134C7
:0472740000200800EE
:04727A0000200134BB
:0472800000200800E2
:0472860000200800DC
:04728C0000200800D6
:0472920000200800D0
:0472980000200800CA
:0472B00000200800B2
:0472B60000200800AC
:0472C20000200800A0
:0472CE000020080094
:0472D400002008008E
:0472DA000020080088
:0472E0000020013455
:0472E600002008007C
:08740000AC31042C2022082A03
:08741000AC310024BA31080080
:1074400064007008083A0319E32B0B3A0319E32B85
:10745000013A0319382A033A0319602A0B3A03192F
:107460006E2A183A0319AF2A123A0319BA2AE32BE3
:1074700003302B005202031CE32B031D432AE93087
:107480005102031CE32B03302B00D202E830D1025F
:10749000031CD203D30A0319D40A5708580403194A
:1074A000E32B53085706031DE32B54085806031D0E
:1074B000E32BD701D801FE30C70000301A24E32B9C
:1074C0002100931D6C2A2000931D6C2A9311043017
:1074D0002B00D1070318D20A031408002B00B810A0
:1074E000381029004008713A031DAD2A1F304105AC
:1074F0002B00C0004008031DAA2A22008D17FF3070
:107500002B00C70090301A242B00C20025002F0842
:10751000103A03198F2A013A03199C2AA62A2B0034
:10752000C2080319962AB8103810AD2A2B00B814D7
:10753000381041193814AD2A2B00B814C2080319A9
:10754000A32A3814AD2A2B003810AD2A2B00B8100E
:107550003814AD2A2B00B810381003100800290089
:107560004008103A0319B72A013A031DE32B2B00F8
:10757000B801E32B25002E0FD12A2F083F3A031D17
:10758000D12AA108031DD12A01302900A200B61476
:107590000530A700A8010230A9001830AA00031482
:1075A000080025002E0A0319E72A2F083F3A031D79
:1075B000E72AA108031DE72A2E08713A031DE32BD1
:1075C00071302900A1000330A00003140800250039
:1075D0002E08713A031DE32B2F080319F92A013AEB
:1075E0000319F92A033A0319F92A3C3A0319D12B52
:1075F000DD2B0430250021020318022B0530F30097
:107600000530082A290021082B00C100C0012900EB
:1076100020082B00C004290023082B00C300C2014E
:10762000290022082B00C20404302500A1022B00EF
:10763000461040184614C501C40120302B004402F6
:107640000318CB2B4408103A031D2A2B4208C00014
:107650004308C1002B00401CC52B2500A1080319BD
:10766000FE2A2500A10304308500A4302B00450725
:1076700084000318850A4620D600C50A65305602E4
:10768000031C4A2B7F30560203184A2B0630F300A6
:107690000530082A2B00D61F842B2500A1080319CA
:1076A000FE2A2500A1032B00D61304308500A43048
:1076B000450784000318850A4620D700D801C50A6B
:1076C000D301D401D101D201570858040319462B24
:1076D0005708803A031D6F2BD8080319462B2B003F
:1076E000D71F752BD801D713842B2B005708C40044
:1076F000D701D8012B00C4080319842B3C30D707CD
:107700000318D80AC4037A2B2B00461CBF2B56083B
:107710007F3A0319AD2B2500AF08031D922B2B00D8
:107720005608D50025002F0B9E2B2B005608D50799
:1077300065305502031C9E2B6430D50025002F08B0
:10774000023A031DAD2B2B00560855020318AA2B35
:10775000D501AD2B2B005608D502A0308400043093
:1077600085002B0055083121461055083A20D600D7
:10777000FE30C70056081A242B00D900C52BA030B4
:107780008400043085000030312103102B00C10C2F
:10779000C00CC40A1D2B2B0045082500A1000314B2
:1077A00008002500A108031DFE2A01302500A100C4
:1077B00001302900A000031408000230F300053056
:1077C000082A031408000310080003302B0050029D
:1077D000031CFB2B031DF02BE9304F02031CFB2B7A
:1077E00003302B00D002E830CF02031CD003D10AB3
:1077F0000319D20AE52B28009E01F9309D009C0157
:1078000020009311073028009E00210093150800E6
:107810002B004E1C0E2C22008E16102C22008E12D5
:107820002B004D0828009D002000931D142C2000E3
:10783000931108002B00C80020008E190234280084
:107840009E012100931110302B00C9002B00C908A4
:107850000319322C28001C082B00CF070318D00A6C
:10786000C903262C28009C012000931167302800B2
:107870009D0006309E0059302B00CD004E14082488
:1078800075302B00CD004E1008242B004708CA008D
:10789000CB014A08CB00CA014808CA04C90110300C
:1078A0002B0049020318702CCB1F602C5930CD00DF
:1078B0004E14082475302B00CD004E1008246A2C7D
:1078C00075302B00CD004E10082459302B00CD0010
:1078D0004E14082403102B00CA0DCB0DC90A4F2CDF
:1078E00067302B00CD004E10082467302B00CD00F0
:1078F0004E10082467302B00CD004E10082467304E
:107900002B00CD004E1008240F302B00D107031898
:10791000D20A0330D0074130CF070318D00A4718E6
:10792000932CE5230034673028009D00200093113C
:1079300016302B00C90020008E1DA62C0000000070
:1079400000000000000000000000B92C2B00C90856
:10795000031DAC2CE523F0342000931D9B2C2B0041
:10796000D00AA030CF070318D00AC9032000931112
:107970009B2C04302B00C9002B00C9080319C82C0C
:1079800028001C082B00CF070318D00AC903BC2C01
:107990002B004C1428009C0120009311E730280094
:1079A0009D0020009319F52C8E19DA2C2B004C1811
:1079B000DD2CD12C2B004C18D12C00000000000035
:1079C000000000000000000020008E1DEA2C2B00AB
:1079D0004C14EC2C2B004C104F3028001C02031CC4
:1079E000D12C7F301C020318D12C04302B00C9008D
:1079F0002B00C9080319042D28001C082B00CF07F1
:107A00000318D00AC903F82C2000931D092DE52383
:107A1000FE3407302B00C900CA01CB0128009C01AD
:107A200020009319532D8E19192D2B004C181C2D45
:107A3000102D2B004C18102D00000000000000003D
:107A400000000000000020008E1D292D2B004C148A
:107A50002B2D2B004C109D3028001C02031C102DD8
:107A600003102B00CA0DCB0D4C1C4A142B00C9036C
:107A700028001C082B00CF070318D00A28001C0878
:107A80002B00CF070318D00A28001C082B00CF07B3
:107A90000318D00A28001C082B00CF070318D00AAF
:107AA00028009C01102D03302B00D007A030CF07F9
:107AB0000318D00A28009E019C01E5232B00490FE2
:107AC000652D4A082600A00000342B004908080054
:107AD000C43022008E040C14323073202008FF00C2
:107AE000FF010830FF00FF0DFF0D64307F02031C13
:107AF0007C2D6430FF020314FF0DFF0B732DFF0874
:107B000003198C2D22000E113230732022000E1525
:107B100032307320FF037F2D2B002008FF00FF0170
:107B20000830FF00FF0DFF0D0A307F02031C9B2D64
:107B30000A30FF020314FF0DFF0B922D7F08FF0098
:107B4000FF010830FF00FF0DFF0D0A307F02031C0C
:107B5000AB2D0A30FF02FF0BA32DFF080319BA2D2E
:107B600022008E133230732022008E1732307320A1
:107B7000FF03AD2D2B002008FF00FF010830FF00A0
:107B8000FF0DFF0D0A307F02031CC82D0A30FF02D3
:107B9000FF0BC02DFF080319D72D22000E13323022
:107BA000732022000E1732307320FF03CA2D643079
:027BB000732838
:020000040001F9
:10E00000000056006F007E008800900097009D0081
:10E01000A200A600AA00AD00B000B300B600B9008F
:10E02000BB00BD00BF00C100C300C500C700C800E1
:10E03000CA00CB00CD00CE00CF00D100D200D3006B
:10E04000D400D500D600D800D900DA00DB00DC000F
:10E05000DD00DD00DE00DF00E000E100E200E200C4
:10E06000E300E500E500E600E700E700E800E9007E
:10E07000E900EA00EB00EB00EC00EC00ED00EE0044
:10E08000EE00EF00EF00F000F000F100F100F20010
:10E09000F200F300F300F400F400F500F500F600E0
:10E0A000F600F700F700F800F800F900F900F900B1
:10E0B000FA00FA00FA00FB00FB00FC00FC00FD0087
:0AE0C000FD00FD00FE00FE00FE0062
:00000001FF
