{
  "mType": "iqrfSensor_Frc",
  "data": {
    "msgId": "testEmbedSensor",
    "req": {
      "nAdr": 0,
      "param": {
        "sensorType": 1,
        "sensorIndex": 1,
        "frcCommand": 144,
        "getExtraResult": true
      }
    },
    "returnVerbose": true
  }
}