:020000040000FA
:020000000029D5
:0A020000B8310022803163000029AC
:047020000020080044
:04702C000020080038
:047032000020080032
:04703800002008002C
:047044000020080020
:04704A00002008001A
:047050000020080014
:04705600002008000E
:04705C000020080008
:047062000020080002
:0470680000200800FC
:04706E0000200800F6
:0470740000200134C3
:04707A0000200800EA
:0470800000200800E4
:0470860000200800DE
:04708C0000200134AB
:0470980000200800CC
:04709E0000200800C6
:0470A40000200800C0
:0470AA0000200800BA
:0470B00000200800B4
:0470B60000200800AE
:0470BC0000200800A8
:0470C20000200800A2
:0470C800002008009C
:0470CE000020080096
:0470D4000020080090
:0470DA00002008008A
:0470E0000020080084
:0470E600002008007E
:0470EC000020080078
:0470F2000020080072
:0470F800002008006C
:04710400002008005F
:04710A000020080059
:047110000020080053
:04711600002008004D
:04711C000020080047
:047122000020080041
:04712800002008003B
:04712E000020080035
:04713A000020080029
:047140000020080023
:04714600002008001D
:04714C000020080017
:047152000020080011
:04715800002008000B
:04715E000020080005
:0471640000200800FF
:0471700000200800F3
:0471760000200800ED
:04717C0000200800E7
:0471820000200800E1
:0471880000200800DB
:04718E0000200800D5
:0471940000200800CF
:04719A0000200800C9
:0471A00000200800C3
:0471A60000200800BD
:0471AC0000200800B7
:0471B20000200800B1
:0471B800002001347E
:0471BE0000200800A5
:0471C400002008009F
:0471D0000020080093
:0471D6000020013460
:0471DC000020080087
:0471E2000020080081
:0471E800002001344E
:0471EE000020080075
:0471F400002008006F
:047220000020080042
:04722600002008003C
:04722C000020080036
:047232000020080030
:04723800002008002A
:04723E000020080024
:0472440000200134F1
:04724A000020080018
:047250000020080012
:047262000020080000
:0472680000200800FA
:04726E0000200134C7
:0472740000200800EE
:04727A0000200134BB
:0472800000200800E2
:0472860000200800DC
:04728C0000200800D6
:0472920000200800D0
:0472980000200800CA
:04729E0000200800C4
:0472A4000020013491
:0472AA00002001348B
:0472B00000200800B2
:0472B60000200800AC
:0472C20000200800A0
:0472CE000020080094
:0472D400002008008E
:0472DA000020080088
:0472E0000020013455
:0472E600002008007C
:08740000AC31042C20220432FF
:08741000AC310024BA31080080
:1074400064007008013A2B0003190D32033A031946
:107450000B32023A031924320A3A03199332183ACA
:107460000319D132DB320800410842040319D63235
:1074700041082900A0002B0042082900A1002B0090
:1074800043082900A2002B00C101C20103302500DE
:10749000A1000230AE000430AF0008222B00BE3243
:1074A0002500A108031D2A322F083F3A031D26326A
:1074B0002E0F0C3201302900A20033170D30A70027
:1074C000A801A901AA0103142B0008002E0A031920
:1074D00015322F083F3A031D1132A108031D0E3249
:1074E0002E085E3A031D08325E302900A1000330E9
:1074F000A0000E30A200E7332B0090322E085E3A37
:10750000031D3E322F083E3A031909323E3A031951
:107510000B32013A0319083202302B001232A10853
:10752000031D0D3221141C322108031D04320430C6
:10753000A10029002014043A2B000319073205305A
:107540002B00F300053008222B0008000130250035
:10755000A1002900201C113225002F0B0832A10A9E
:107560007F302C0020052900A100813004327F30BB
:107570002C0020052900A000A6332500A101A3337B
:107580002B004C3225002F08103A03190332803AA1
:10759000031D3732C03086000430870016005E3A83
:1075A0002B00031D2E320108031904320108813A11
:1075B000031D273214001F39031D233225002F0815
:1075C000903A031D063204302C0020072B00B8002F
:1075D0000F32010E0F390936013E2B00C0002C007E
:1075E00020082B00890CC00BFD33B814031C381085
:1075F0004131011C0632413FC100423FC200433FBE
:10760000C3002B000B3229004008103A0319033243
:10761000803A031D02322B00B8012B000310080032
:00000001FF
