{
  "applicationName": "iqrfgd2",
  "resourceDir": "",
  "dataDir": "",
  "cacheDir": ".",
  "userDir": "",
  "configurationDir": "configuration",
  "deploymentDir": "../../..",
  "components": [
    {
      "name": "shape::TraceFormatService",
      "libraryPath": "shape/bin",
      "libraryName": "TraceFormatService",
      "enabled": true,
      "startlevel": -4
    },
    {
      "name": "shape::TraceFileService",
      "libraryPath": "shape/bin",
      "libraryName": "TraceFileService",
      "enabled": true,
      "startlevel": -3
    },
    {
      "name": "shape::LauncherService",
      "libraryPath": "",
      "libraryName": "",
      "enabled": true,
      "startlevel": -2
    },
    {
      "name": "iqrf::Scheduler",
      "libraryPath": "IqrfDaemon/bin",
      "libraryName": "Scheduler",
      "enabled": true,
      "startlevel": 0
    },
    {
      "name": "iqrf::TestScheduler",
      "libraryPath": "IqrfDaemon/bin",
      "libraryName": "TestScheduler",
      "enabled": true,
      "startlevel": 1
    }
  ]
}
