{
    "$schema": "http://apidocs.iqrf.org/iqrf-gateway-daemon/com.iqrftech.self-desc/schema/jsonschema/1-0-0#",
    "self": {
        "vendor": "com.iqrftech.self-desc",
        "name": "iqrfEmbedOs_ReadCfg-request",
        "format": "jsonschema",
        "version": "1-0-0"
    },
    "type": "object",
    "properties": {
        "mType": {
            "type": "string",
            "description": "Embedded peripheral OS - Read Configuration request.",
            "enum": [
                "iqrfEmbedOs_ReadCfg"
            ]
        },
        "data": {
            "type": "object",
            "properties": {
                "msgId": {
                    "type": "string",
                    "description": "Message identification for binding request with response."
                },
                "timeout": {
                    "type": "integer",
                    "description": "Timeout to wait for IQRF DPA response."
                },
                "req": {
                    "type": "object",
                    "properties": {
                        "nAdr": {
                            "type": "integer",
                            "description": "Network device address."
                        },
                        "hwpId": {
                            "type": "integer",
                            "description": "Hardware profile identification."
                        },
                        "param": {
                            "type": "object",
                            "properties": {}
                        }
                    },
                    "required": [
                        "nAdr",
                        "param"
                    ]
                },
                "returnVerbose": {
                    "type": "boolean",
                    "description": "Flag that includes additional parameters in the response."
                }
            },
            "required": [
                "msgId",
                "req"
            ]
        }
    },
    "required": [
        "mType",
        "data"
    ]
}
