{
    "$schema": "http://apidocs.iqrf.org/iqrf-gateway-daemon/com.iqrftech.self-desc/schema/jsonschema/1-0-0#",
    "self": {
        "vendor": "com.iqrftech.self-desc",
        "name": "iqrfSensor_ReadSensorsWithTypes-request",
        "format": "jsonschema",
        "version": "1-0-0"
    },
    "type": "object",
    "properties": {
        "mType": {
            "type": "string",
            "description": "Standard peripheral Sensor - Read with Types request.",
            "enum": [
                "iqrfSensor_ReadSensorsWithTypes"
            ]
        },
        "data": {
            "type": "object",
            "properties": {
                "msgId": {
                    "type": "string",
                    "description": "Message identification for binding request with response."
                },
                "timeout": {
                    "type": "integer",
                    "description": "Timeout to wait for IQRF DPA response."
                },
                "req": {
                    "type": "object",
                    "properties": {
                        "nAdr": {
                            "type": "integer",
                            "description": "Network device address."
                        },
                        "hwpId": {
                            "type": "integer",
                            "description": "Hardware profile identification."
                        },
                        "param": {
                            "type": "object",
                            "properties": {
                                "sensorIndexes": {
                                    "oneOf": [
                                        { "type": "null" },
                                        { "type": "integer" },
                                        { "type": "array", 
                                            "items": {
                                                "type":"integer"
                                            }  
                                        }
                                    ],
                                    "description": "Specifies sensors to read data from. Undefined: Missing parameter: reads 1st sensor. Number: -1: reads all sensors. Array: array of indexes: specifies sensors to read."
                                }
                            }
                        }
                    },
                    "required": [
                        "nAdr",
                        "param"
                    ]
                },
                "returnVerbose": {
                    "type": "boolean",
                    "description": "Flag that includes additional parameters in the response."
                }
            },
            "required": [
                "msgId",
                "req"
            ]
        }
    },
    "required": [
        "mType",
        "data"
    ]
}
