{
    "$schema": "http://apidocs.iqrf.org/iqrf-gateway-daemon/com.iqrftech.self-desc/schema/jsonschema/1-0-0#",
    "self": {
		"vendor": "com.iqrftech.self-desc",
		"name": "iqrfRaw-request",
		"format": "jsonschema",
		"version": "1-0-0"
	},
    "type": "object",
    "properties": {
        "mType": {
            "type": "string",
            "description": "Message type for Raw communication.",
            "enum": [
                "iqrfRaw"
            ]
        },
        "data": {
            "type": "object",
            "properties": {
                "msgId": {
                    "type": "string",
                    "description": "Message identification for binding request with response."
                },
                "timeout": {
                    "type": "integer",
                    "description": "Timeout to wait for IQRF DPA response"
                },
                "req": {
                    "type": "object",
                    "properties": {
                        "rData": {
                            "type": "string",
                            "description": "Binary buffer with DPA request"
                        }
                    },
                    "required": [
                        "rData"
                    ]
                },
                "returnVerbose": {
                    "type": "boolean",
                    "description": "Flag that includes additional parameters in the response."
                }
            },
            "required": [
                "msgId",
                "req"
            ]
        }
    },
    "required": [
        "mType",
        "data"
    ]
}
