{
    "$schema": "https://apidocs.iqrf.org/iqrf-gateway-daemon/com.iqrftech.self-desc/schema/jsonschema/1-0-0#",
    "self": {
        "vendor": "com.iqrftech.self-desc",
        "name": "mngDaemon_Version-request",
        "format": "jsonschema",
        "version": "1-0-0"
    },
    "type": "object",
    "properties": {
        "mType": {
            "type": "string",
            "description": "Daemon version - Get daemon build ID.",
            "enum": [
                "mngDaemon_Version"
            ]
        },
        "data": {
            "type": "object",
            "properties": {
                "msgId": {
                    "type": "string",
                    "description": "Message identification for binding request with response."
                },
                "returnVerbose": {
                    "type": "boolean",
                    "description": "Flag that includes additional parameters in the response."
                }
            },
            "required": [
                "msgId"
            ]
        }
    },
    "required": [
        "mType",
        "data"
    ]
}
