{
    "$schema": "http://apidocs.iqrf.org/iqrf-gateway-daemon/com.iqrftech.self-desc/schema/jsonschema/1-0-0#",
    "self": {
        "vendor": "com.iqrftech.self-desc",
        "name": "mngDaemon_Mode-request",
        "format": "jsonschema",
        "version": "1-0-0"
    },
    "type": "object",
    "properties": {
        "mType": {
            "type": "string",
            "description": "Daemon runtime configuration - Change the daemon mode request.",
            "enum": [
                "mngDaemon_Mode"
            ]
        },
        "data": {
            "type": "object",
            "properties": {
                "msgId": {
                    "type": "string",
                    "description": "Message identification for binding request with response."
                },
                "req": {
                    "type": "object",
                    "properties": {
                        "operMode": {
                            "type": "string",
                            "description": "Operation mode.",
                            "enum": [
                                "operational",
                                "service",
                                "forwarding"
                            ]
                        }
                    },
                    "required": [
                        "operMode"
                    ]
                },
                "returnVerbose": {
                    "type": "boolean",
                    "description": "Flag that includes additional parameters in the response."
                }
            },
            "required": [
                "msgId",
                "req"
            ]
        }
    },
    "required": [
        "mType",
        "data"
    ]
}
