{
    "$schema": "https://apidocs.iqrf.org/iqrf-gateway-daemon/com.iqrftech.self-desc/schema/jsonschema/1-0-0#",
    "self": {
        "vendor": "com.iqrftech.self-desc",
        "name": "mngMetaData_ImportMetaDataAll-request",
        "format": "jsonschema",
        "version": "1-0-0"
    },
    "type": "object",
    "properties": {
        "mType": {
            "type": "string",
            "description": "Daemon metadata - Import metadata.",
            "enum": [
                "mngMetaData_ImportMetaDataAll"
            ]
        },
        "data": {
            "type": "object",
            "properties": {
                "msgId": {
                    "type": "string",
                    "description": "Message identification for binding request with response."
                },
                "req": {
                    "type": "object",
                    "properties": {
                        "metaIdMetaDataMap": {
                            "type": "array",
                            "description": "Metadata map.",                    
                            "properties": {
                                "metaId": {
                                    "type":"string",
                                    "description": "Metadata ID."
                                },
                                "metaData": {
                                    "type":"object",
                                    "description": "Metadata JSON."
                                }
                            }
                        },
                        "midMetaIdMap": {
                            "type": "array",
                            "description": "Metadata MID map.",            
                            "properties": {
                                "mid": {
                                    "type":"string",
                                    "description": "Module ID."
                                },
                                "metaId": {
                                    "type":"string",
                                    "description": "Metadata ID."
                                }
                            }
                        }
                    },
                    "required": [
                        "metaIdMetaDataMap",
                        "midMetaIdMap"
                    ]
                },
                "returnVerbose": {
                    "type": "boolean",
                    "description": "Flag that includes additional parameters in the response."
                }
            },
            "required": [
                "msgId"
            ]
        }
    },
    "required": [
        "mType",
        "data"
    ]
}
